<svg width="100%" height="100%" viewBox="0 20 700 480">
    <rect class="roomPlan"  x="74.2" y="240.3" width="28.75" height="22.25" id="svg_33"/>
    <rect class="roomPlan"  x="105.70002" y="240.04998" width="30" height="22.25" id="svg_34"/>
    <rect class="roomPlan"  x="157.06665" y="162.74165" width="38" height="9.91666" id="svg_61"/>
    <rect fill="transparent" stroke-width="1"  x="277.05004" y="193.90833" width="137.75002" height="65.75" id="svg_66"/>
    <rect class="roomPlan"  x="494.88328" y="160.24166" width="39.16669" height="28.25" id="svg_72"/>
    <rect class="roomPlan"  x="494.79995" y="214.90831" width="12.75005" height="29.25" id="svg_73"/>
    <rect class="roomPlan"  x="511.21663" y="214.90831" width="21.50003" height="29.25" id="svg_74"/>
    <rect class="roomPlan"  x="494.88325" y="192.24165" width="38.50002" height="19.91667" id="svg_75"/>
    <rect class="roomPlan"  x="502.36251" y="289.40002" width="24.625" height="10.25" id="svg_77" transform="rotate(90 514.6749877929689,294.52502441406256) "/>
    <rect class="onlywall"  x="275.15833" y="275.94167" width="141.08336" height="64.41668" id="svg_84"/>
    <rect class="roomPlan"  x="171.03334" y="286.96667" width="11.58336" height="24.41666" id="svg_89"/>
    <path class="roomPlan"  d="m232.15,343.5c0,0 28.25,0.27064 28.25,0.27064c0,0 0.25,29.22936 0.25,29.22936c0,0 -8.25,-2.70642 -8.4,-2.70642c-0.15,0 -9.6,-5.68349 -9.75,-5.68349c-0.15,0 -11.1,-6.22477 -11.1,-6.22477c0,0 0.75,-14.88532 0.75,-14.88532z" id="svg_96"/>
    <path class="roomPlan"  d="m311.35,383c0,0 30.5,0.625 30.4,0.625c-0.1,0 0.225,6.75 0.125,6.75c-0.1,0 -12.025,0.125 -12.125,0.125c-0.1,0 -8.9,-0.375 -9,-0.375c-0.1,0 -8.775,-0.5 -8.775,-0.5c0,0 -0.625,-6.625 -0.625,-6.625z" id="svg_104"/>
    <path class="roomPlan"  d="m349.85,390.375c0,0 -0.375,-1.75 -0.375,-1.75c0,0 0,-3.125 -0.1,-3.125c-0.1,0 0.6,-1.75 0.5,-1.75c-0.1,0 1.1,-0.75 1,-0.75c-0.1,0 2.725,-0.375 2.725,-0.375c0,0 7.375,-0.25 7.275,-0.25c-0.1,0 8.225,-0.25 8.125,-0.25c-0.1,0 8.475,0.25 8.375,0.25c-0.1,0 1.6,0.375 1.6,0.375c0,0 1,0.875 0.9,0.875c-0.1,0 0.6,1.25 0.6,1.25c0,0 -0.25,1.375 -0.35,1.375c-0.1,0 -0.65,1.125 -0.65,1.125c0,0 -1.5,0.75 -1.6,0.75c-0.1,0 -2.275,0.625 -2.375,0.625c-0.1,0 -6.4,0.875 -6.5,0.875c-0.1,0 -8.775,1 -8.875,1c-0.1,0 -7.525,0.25 -7.525,0.25c0,0 -2.75,-0.5 -2.75,-0.5z" id="svg_106"/>
    <path class="roomPlan"  d="m431.95,342.64302c0,-0.13401 28.5,-0.26802 28.5,-0.26802c0,0 0.625,12.46284 0.55,12.46284c-0.075,0 -8.55,6.43243 -8.55,6.43243c0,0 -6.875,4.02027 -6.875,4.02027c0,0 -5.875,3.35023 -5.95,3.35023c-0.075,0 -7.425,3.48423 -7.425,3.48423c0,0 -0.25,-29.48198 -0.25,-29.48198z" id="svg_115"/>
    <path class="roomPlan"  d="m461.96469,354.5c0,0 -0.11928,-12.40196 -0.2147,-12.40196c-0.09542,0 20.85002,-1.34804 20.85002,-1.34804c0,0 -20.63531,13.75 -20.63531,13.75l-0.00001,0z" id="svg_121"/>
    <path class="roomPlan" d="m486.8366,316.24457c0,0 8.15588,-0.11957 8.0665,-0.11957c-0.08938,0 0.31283,15.06522 0.22345,15.06522c-0.08938,0 -8.5134,6.93478 -8.40168,6.93478c0.11172,0 0.11172,-21.88044 0.11172,-21.88044l0.00001,0.00001z" id="svg_122"/>
    <path class="roomPlan"  d="m205.875,341.375c0,0 -0.125,-21.28061 -0.125,-21.28061c0,0 -9,-0.21939 -9,-0.21939c0,0 -0.375,14.69898 -0.375,14.69898c0,0 9.5,6.80102 9.5,6.80102z" id="svg_123"/>
    <path class="roomPlan"  d="m231,343.25c0,0 -23.5,-0.125 -23.5,-0.125c0,0 22.625,14.25 22.625,14.25c0,0 0.875,-14.125 0.875,-14.125z" id="svg_124"/>
    <line stroke="#ffffff" id="svg_27" y2="281.09768" x2="109.7491" y1="281.34767" x1="75.24938" stroke-width="1.5" fill="none"/>
    <line stroke="#ffffff" id="svg_32" y2="272.09775" x2="588.84517" y1="255.84789" x1="588.59517" stroke-width="1.5" fill="none"/>
    <ellipse ry="4.62496" rx="4.62496" id="svg_38" cy="226.32281" cx="303.72206" stroke-width="2" fill="none"/>
    <ellipse ry="4.62496" rx="4.62496" id="svg_39" cy="226.32281" cx="345.22166" stroke-width="2" fill="none"/>
    <ellipse ry="4.62496" rx="4.62496" id="svg_40" cy="226.32281" cx="391.72124" stroke-width="2" fill="none"/>
    <path class="stairsH" id="svg_62" d="m275.24759,277.29757c0,0 0.25,16.49986 0.25,16.49986c0,0 140.74877,15.99986 140.74877,15.99986c0,0 -0.25,-32.74971 -0.25,-32.74971c0,0 -140.74877,0.25 -140.74877,0.25z" fill="#999999"/>
    <rect  data-office="B200" x="73.8" y="197.95" width="61" height="38.5" id="svg_24"/>
    <text font-size="18" id="svg_25" y="224.25" x="83.2">B200</text>
    <rect data-office="B202" x="73.42498" y="165.07501" width="61.5" height="29.125" id="svg_28"/>
    <text font-size="18" id="svg_38" y="186.25" x="83.2">B202</text>
    <rect data-office="B204" x="73.61252" y="131.53749" width="61.25" height="30.625" id="svg_29"/>
    <text font-size="18" id="svg_39" y="152.25" x="83.2">B204</text>
    <path data-office="B206" id="svg_30"  d="m73.61143,128.775c0,0 0,-43.6875 -0.04894,-43.8375c-0.04894,-0.15 11.79044,2.5875 11.79044,2.5875c0,0 14.30995,1.6875 14.30995,1.6875c0,0 15.77764,2.4375 15.77764,2.4375c0,0 10.8242,1.6875 10.8242,1.6875c0,0 9.90689,1.125 9.90689,1.125c0,0 8.25574,0.375 8.25574,0.375c0,0 5.50383,0 5.50383,0c0,0 2.93537,0.1875 2.93537,0.1875c0,0 0.18346,49.3125 0.18346,49.3125c0,0 -14.49341,0.1875 -14.49341,0.1875c0,0 -0.36692,-15.9375 -0.36692,-15.9375c0,0 -64.57825,0.1875 -64.57825,0.1875z" />
    <text font-size="18" id="svg_40" y="118.25" x="83.2">B206</text>
    <rect data-office="B238"  x="572.72501" y="207.18756" width="31.125" height="62.25" id="svg_56" transform="rotate(90 588.2875366210939,238.3125610351563) "/>
    <text font-size="18" id="svg_41" y="244.25" x="567.2">B238</text>
    <rect data-office="B236"  x="573.19383" y="173.8437" width="30.9375" height="61.99999" id="svg_55" transform="rotate(90 588.6625366210939,204.8436889648438) "/>
    <text font-size="18" id="svg_42" y="211.25" x="567.2">B236</text>
    <rect data-office="B234"  x="572.44371" y="140.65626" width="30.5625" height="62.74999" id="svg_54" transform="rotate(90 587.7249755859376,172.03125000000006) "/>
    <text font-size="18" id="svg_43" y="178.25" x="567.2">B234</text>
    <rect data-office="B232"  x="572.09996" y="107.75" width="31.5" height="62.5" id="svg_53" transform="rotate(90 587.8499755859376,139.00000000000006) "/>
    <text font-size="18" id="svg_57" y="144.25" x="567.2">B232</text>
    <path data-office="B230"  d="m537.36246,138c0,0 -0.51246,-49.15289 -0.51246,-49.15289c0,0 12.29907,-0.50413 12.29907,-0.50413c0,0 16.39875,-2.26859 16.39875,-2.26859c0,0 18.70483,-3.02479 18.70483,-3.02479c0,0 16.14252,-2.77273 16.04003,-2.77273c-0.10249,0 10.09548,-2.01653 9.99299,-2.01653c-0.10249,0 7.78941,-1.26033 7.78941,-1.26033c0,0 0.25623,3.02479 0.25623,3.02479c0,0 0.76869,40.33058 0.76869,40.33058c0,0 -33.82243,1.5124 -33.82243,1.5124c0,0 -33.05374,0.50413 -33.15623,0.50413c-0.10249,0 -0.40997,15.12397 -0.51246,15.12397c-0.10249,0 -14.24642,0.50413 -14.24642,0.50413l0,-0.00001z" id="svg_52"/>
    <text font-size="18" id="svg_58" y="111.25" x="567.2">B230</text>
    <rect data-office="B213"  x="417.75833" y="193.40833" width="59.50002" height="29.25" id="svg_68"/>
    <text font-size="18" id="svg_59" y="213.25" x="426.2">B213</text>
    <rect data-office="B215"  x="417.8833" y="225.90833" width="59.16669" height="33.25" id="svg_69"/>
    <text font-size="18" id="svg_62" y="248.25" x="426.2">B215</text>
    <rect data-office="B240"  x="548.73752" y="261.90002" width="29.875" height="52.74999" id="svg_76" transform="rotate(90 563.6749877929689,288.27502441406256) "/>
    <text font-size="18" id="svg_91" y="295.25" x="542.2">B240</text>
    <rect data-office="B235"  x="199.38333" y="227.325" width="74.33335" height="32.66667" id="svg_67"/>
    <text font-size="18" id="svg_92" y="250.25" x="215.2">B235</text>
    <rect data-office="B201"  x="199.30001" y="161.49166" width="73.91667" height="62.33333" id="svg_63"/>
    <text font-size="18" id="svg_95" y="200.25" x="215.2">B201</text>
    <path data-office="B233" id="svg_59" d="m198.74993,308.79729c0,0 -0.25167,-29.74974 -0.25167,-29.74974c0,0 74.99767,13.24988 74.99767,13.24988c0,0 0.25167,16.49986 0.25167,16.44985c0,0.05 -74.99767,0.05 -74.99767,0.05z" fill="#ffffff"/>
    <text font-size="18" id="svg_102" y="305" x="215.2">B233</text>
    <rect data-office="B231"  x="207.03334" y="311.69167" width="67.08336" height="29.66667" id="svg_83"/>
    <text font-size="18" id="svg_103" y="332.25" x="222.2">B231</text>
    <rect data-office="B227"  x="263.15835" y="343.21664" width="47.58336" height="30.66667" id="svg_85"/>
    <text font-size="18" id="svg_105" y="365.25" x="265.2">B227</text>
    <rect data-office="B225"  x="313.65833" y="342.84166" width="67.08336" height="31.16667" id="svg_86"/>
    <text font-size="18" id="svg_109" y="365.25" x="326.2">B225</text>
    <rect data-office="B223" x="383.65833" y="342.71666" width="47.33336" height="30.66667" id="svg_87"/>
    <text font-size="18" id="svg_112" y="365.25" x="385.2">B223</text>
    <rect data-office="B219" x="419.3833" y="308.9083" width="65.16668" height="30.25003" id="svg_41"/>
    <text font-size="18" id="svg_113" y="330.25" x="425.2">B219</text>
    <rect data-office="B217" x="419.50831" y="275.90833" width="72.54167" height="30.99998" id="svg_42"/>
    <text font-size="18" id="svg_113" y="298.25" x="425.2">B217</text>
    <rect data-office="B274"  x="111.28334" y="279.84163" width="43.33336" height="29.16667" id="svg_88"/>
    <text font-size="16" id="svg_116" y="300.25" x="113.2">B274</text>
    <rect data-office="B209"  x="437.71664" y="160.03333" width="39.54169" height="29" id="svg_70"/>
    <text font-size="15" id="svg_119" y="180.25" x="439.2">B209</text>
    <rect data-office="B207"  x="418.13335" y="160.53333" width="17.66669" height="28.375" id="svg_71"/>
    <text transform="rotate(90 426.71093750000006,176.05468750000003) " font-size="9" id="svg_125" y="179.25" x="416.2">B207</text>
    <rect data-office="B205"  x="348.05001" y="161.07499" width="66.91667" height="28.66666" id="svg_65"/>
    <text font-size="18" id="svg_126" y="182.25" x="361.2">B205</text>
    <rect data-office="B203"  x="277.38333" y="161.24165" width="66.25" height="29.66666" id="svg_64"/>
    <text font-size="18" id="svg_127" y="182.25" x="290.2">B203</text>
    <rect data-office="B235"  x="157.23332" y="174.74166" width="38" height="74.91666" id="svg_60"/>
    <rect data-office="B208"  x="155.7" y="82.6" width="31" height="60.25" id="svg_35"/>
    <text transform="rotate(90 171.41406250000003,113.25000000000001) " font-size="18" id="svg_129" y="119.25" x="150.2">B208</text>
    <rect data-office="B210"  x="190.20002" y="82.82501" width="31.5" height="60.25" id="svg_36"/>
    <text transform="rotate(90 205.54687500000003,113.25000000000001) " font-size="18" id="svg_130" y="119.25" x="185.2">B210</text>
    <rect data-office="B212"  x="224.95001" y="82.07501" width="31.5" height="60.25" id="svg_37"/>
    <text transform="rotate(90 240.54687500000003,113.25000000000001) " font-size="18" id="svg_131" y="119.25" x="220.2">B212</text>
    <rect data-office="B214"  x="259.45" y="81.375" width="31.5" height="60.75" id="svg_44"/>
    <text transform="rotate(90 274.54687500000006,113.25000000000003) " font-size="18" id="svg_132" y="119.25" x="254.2">B214</text>
    <rect data-office="B216"  x="294.45" y="80.875" width="31.5" height="60.25" id="svg_45"/>
    <text transform="rotate(90 309.54687500000006,113.25000000000003) " font-size="18" id="svg_133" y="119.25" x="289.2">B216</text>
    <rect data-office="B218"  x="328.7" y="80.375" width="31.5" height="60.25" id="svg_46"/>
    <text transform="rotate(90 344.74218750000006,113.25000000000003) " font-size="18" id="svg_134" y="119.25" x="324.2">B218</text>
    <rect data-office="B220"  x="363.2" y="80.125" width="31.5" height="59.75" id="svg_47"/>
    <text transform="rotate(90 379.21875,113.25000000000004) " font-size="18" id="svg_135" y="119.25" x="358.2">B220</text>
    <rect data-office="B222"  x="398.2" y="79.875" width="31.5" height="60" id="svg_48"/>
    <text transform="rotate(90 414.21875,113.25000000000004) " font-size="18" id="svg_136" y="119.25" x="393.2">B222</text>
    <rect data-office="B224"  x="432.7" y="79.375" width="31.5" height="60.5" id="svg_49"/>
    <text transform="rotate(90 449.21875,113.25000000000004) " font-size="18" id="svg_137" y="119.25" x="428.2">B224</text>
    <rect data-office="B226"  x="467.2" y="78.75001" width="31.5" height="60.75" id="svg_50"/>
    <text transform="rotate(90 483.21875,113.25000000000004) " font-size="18" id="svg_140" y="119.25" x="462.2">B226</text>
    <rect data-office="B228"  x="502.2" y="78.25" width="31.5" height="60.5" id="svg_51"/>
    <text transform="rotate(90 518.4140625000001,113.25000000000004) " font-size="18" id="svg_141" y="119.25" x="497.2">B228</text>
    <path data-office="B272"  d="m157.04062,311.05c0,0 2.65938,13.92014 2.65938,13.92014c0,0 -47.86892,38.82986 -47.86892,38.82986c0,0 -7.73639,-9.28009 -7.9298,-9.32894c-0.19341,-0.04884 -8.75179,-11.67338 -8.75179,-11.67338c0,0 -7.49463,-12.21065 -7.68804,-12.25949c-0.19341,-0.04884 -5.12536,-8.01019 -5.12536,-8.2544c0,-0.24421 -3.14291,-5.6169 -3.33632,-5.66574c-0.19341,-0.04884 3.81984,-2.6375 3.81984,-2.6375c0,0 8.70344,-0.73264 8.70344,-0.97685c0,-0.24421 11.60459,0 11.84635,0c0.24176,0 15.47278,-0.48843 15.47278,-0.73264c0,-0.24421 19.8245,-0.24421 20.06626,-0.24421c0.24176,0 18.13217,-0.97685 18.13217,-0.97685l0.00001,0z" id="svg_90"/>
    <text font-size="16" id="svg_142" y="329.25" x="113.2">B272</text>
    <path data-office="B242"  d="m531.475,320.375c0,0 51,38 50.9,38c-0.1,0 6.225,-7.5 6.125,-7.5c-0.1,0 5.6,-7.75 5.5,-7.75c-0.1,0 5.6,-8.25 5.6,-8.25c0,0 5.375,-8 5.275,-8c-0.1,0 3.85,-6.5 3.75,-6.5c-0.1,0 3.85,-6.25 3.75,-6.25c-0.1,0 2.1,-3.75 2,-3.75c-0.1,0 0.6,-1.5 0.6,-1.5c0,0 -1.625,-1.75 -1.725,-1.75c-0.1,0 -2.4,-1.5 -2.5,-1.5c-0.1,0 -4.775,-0.375 -4.875,-0.375c-0.1,0 -68.4,1.125 -68.5,1.125c-0.1,0 -5.9,14 -5.9,14z" id="svg_120"/>
    <text font-size="18" id="svg_143" y="322.25" x="542.2">B242</text>
    <path data-office="B270"  d="m161.44113,328.25c0,0 6.81906,6.75581 6.62423,6.75581c-0.19483,0 5.55266,5.7907 5.35783,5.7907c-0.19483,0 6.52681,6.75581 6.52681,6.75581c0,0 -42.37556,42.94767 -42.37556,42.94767c0,0 -8.03674,-8.20349 -8.23158,-8.20349c-0.19483,0 -7.84191,-7.72093 -8.03674,-7.72093c-0.19483,0 -7.1113,-8.68605 -7.30613,-8.68605c-0.19483,0 47.44115,-37.63953 47.44115,-37.63953l-0.00001,0.00001z" id="svg_93"/>
    <text transform="rotate(-42.412776947021484 149.21875000000009,356.25) " font-size="18" id="svg_146" y="362.25" x="128.2">B270</text>
    <path data-office="B268"  d="m182.13282,350.25c0,0 20.26368,14.46415 20.1172,14.46415c-0.14648,0 -35.7422,48.78585 -35.7422,48.78585c0,0 -7.56836,-5.88372 -7.71485,-5.88372c-0.14648,0 -9.375,-6.86434 -9.52149,-6.86434c-0.14648,0 -5.71289,-4.65795 -5.85938,-4.65795c-0.14648,0 -3.51563,-3.43217 -3.66211,-3.43217c-0.14648,0 42.38283,-42.41182 42.38283,-42.41182z" id="svg_94"/>
    <text transform="rotate(-50.962913513183594 172.41406250000014,380.25000000000006) " font-size="18" id="svg_147" y="386.25" x="151.2">B268</text>
    <path data-office="B266"  d="m205.64877,368c0,0 24.00123,13.41887 24.00123,13.41887c0,0 -30.61381,50.08113 -30.76075,50.08113c-0.14695,0 -8.42492,-3.83396 -8.42492,-3.83396c0,0 -10.04133,-5.99057 -10.18828,-5.99057c-0.14695,0 -7.20037,-4.55283 -7.34731,-4.55283c-0.14695,0 -3.2818,-2.87547 -3.42875,-2.87547c-0.14695,0 36.14879,-46.24717 36.14879,-46.24717l-0.00001,0z" id="svg_97"/>
    <text transform="rotate(-57.720367431640625 200.96875,400.24218750000006) " font-size="18" id="svg_148" y="406.24977" x="179.94966">B266</text>
    <path data-office="B264"  d="m232.19522,383.075c0,0 24.27978,9.77695 24.27978,9.77695c0,0 -23.28876,55.97305 -23.28876,55.97305c0,0 -8.9191,-3.17751 -8.9191,-3.17751c0,0 -7.92809,-3.17751 -7.92809,-3.29972c0,-0.12221 -6.93708,-3.17751 -7.03618,-3.25084c-0.0991,-0.07333 -7.95287,-4.20409 -7.95287,-4.20409c0,0 30.84523,-51.81784 30.84523,-51.81784l-0.00001,0z" id="svg_98"/>
    <text transform="rotate(-64.16401672363281 230.96875,414.74218749999994) " font-size="18" id="svg_149" y="420.7496" x="209.94931">B264</text>
    <path data-office="B262"  d="m259.50276,394.1c-0.1225,0 25.84724,8.3729 25.84724,8.3729c0,0 -15.67984,57.5021 -15.67984,57.5021c0,0 -7.22743,-0.98505 -7.32543,-1.08355c-0.098,-0.0985 -6.88443,-2.11785 -6.98243,-2.21636c-0.098,-0.0985 -9.8244,-2.85664 -9.9224,-2.95514c-0.098,-0.0985 -8.96691,-3.34916 -9.06491,-3.44766c-0.098,-0.0985 23.12777,-56.17229 23.12777,-56.17229z" id="svg_99"/>
    <text transform="rotate(-70.3199462890625 261.71875,427.7421875) " font-size="18" id="svg_150" y="433.74944" x="240.69895">B262</text>
    <path data-office="B260"  d="m287.775,403.375c0,0 27.125,4.58942 27.125,4.58942c0,0 -7.75,59.91058 -7.775,59.91058c-0.025,0 -12.35,-1.6125 -12.375,-1.6125c-0.025,0 -13.35,-2.35673 -13.375,-2.35673c-0.025,0 -9.475,-2.23269 -9.475,-2.23269c0,0 15.875,-58.29808 15.875,-58.29808z" id="svg_100"/>
    <text transform="rotate(-80.58265686035156 295.71875000000006,436.74218750000006) " font-size="18" id="svg_151" y="442.74934" x="274.69855">B260</text>
    <path data-office="B258"  d="m344.775,470.125c0,0 0.5,-59.77605 0.475,-59.77605c-0.025,0 -26.975,-1.59895 -27,-1.59895c-0.025,0 -8.475,59.77605 -8.475,59.77605c0,0 12.25,0.86097 12.25,0.86097c0,0 11.25,0.24599 11.225,0.24599c-0.025,0 11.525,0.49198 11.525,0.49198l0,0.00001z" id="svg_101"/>
    <text transform="rotate(-85.6114501953125 329.6640625,442.2421875) " font-size="18" id="svg_152" y="448.24927" x="308.44816">B258</text>
    <path data-office="B256"  d="m347.475,410.36528c0,0 1,59.86011 0.9,59.75972c-0.1,-0.10039 33.85,-2.66045 33.85,-2.66045c0,0 -8,-60.98955 -8,-60.98955c0,0 -26.75,3.89028 -26.75,3.89028z" id="svg_107"/>
    <text transform="rotate(85.31355285644531 363.46875000000006,441.7421875) " font-size="18" id="svg_153" y="447.74928" x="342.44776">B256</text>
    <path data-office="B254"  d="m377.85,405.925c0,0 8.25,60.75 8.25,60.75c0,0 13.875,-1.875 13.875,-1.875c0,0 8.875,-1.625 8.875,-1.625c0,0 7.625,-1.875 7.625,-1.875c0,0 4.625,-1.625 4.625,-1.625c0,0 -16.625,-59.5 -16.625,-59.5c0,0 -26.625,5.75 -26.625,5.75z" id="svg_108"/>
    <text transform="rotate(77.8908462524414 398.96875000000006,435.9921875) " font-size="18" id="svg_154" y="441.99935" x="377.94735">B254</text>
    <path data-office="B252"  d="m406.675,399.425c0,0 17.125,59.25 17.125,59.25c0,0 10.125,-2.625 10.125,-2.625c0,0 10.25,-3.5 10.25,-3.5c0,0 8.375,-3 8.375,-3c0,0 4.625,-2 4.625,-2c0,0 -24.25,-56.125 -24.3,-56.175c-0.05,-0.05 -26.2,8.05 -26.2,8.05z" id="svg_110"/>
    <text transform="rotate(71.32102966308594 429.7187499999999,426.74218750000017) " font-size="18" id="svg_155" y="432.74946" x="408.69699">B252</text>
    <path data-office="B250"  d="m435.325,390.3c0,0 24.25,56.375 24.175,56.325c-0.075,-0.05 11.95,-4.325 11.95,-4.325c0,0 10.875,-5.125 10.875,-5.125c0,0 9.375,-5 9.375,-5c0,0 -31.75,-53.375 -31.825,-53.425c-0.075,-0.05 -24.55,11.55 -24.55,11.55z" id="svg_111"/>
    <text transform="rotate(63.626033782958984 462.7187500000001,413.4921874999999) " font-size="18" id="svg_156" y="419.49961" x="441.6966">B250</text>
    <path data-office="B248"  d="m462.575,377.575c0,0 31.875,53 31.875,53c0,0 8.375,-4.5 8.375,-4.5c0,0 8.875,-5.5 8.875,-5.5c0,0 6.375,-4.375 6.375,-4.375c0,0 5.75,-4.25 5.75,-4.25c0,0 -38.375,-49.5 -38.45,-49.575c-0.075,-0.075 -22.8,15.2 -22.8,15.2z" id="svg_114"/>
    <text transform="rotate(54.45560836791992 492.15624999999983,395.9921875000001) " font-size="18" id="svg_157" y="401.99981" x="470.94626">B248</text>
    <path data-office="B246"  d="m487.825,361.15c0,0 38.75,49.125 38.75,49.125c0,0 9.125,-7 9.05,-7.025c-0.075,-0.025 8.45,-6.1 8.375,-6.125c-0.075,-0.025 6.075,-4.85 6.075,-4.85c0,0 5,-4 5,-4c0,0 -47,-43.625 -47.075,-43.65c-0.075,-0.025 -20.175,16.525 -20.175,16.525z" id="svg_117"/>
    <text transform="rotate(48.4575080871582 519.4609374999998,376.25781250000006) " font-size="18" id="svg_158" y="382.25005" x="498.44593">B246</text>
    <path data-office="B244"  d="m510.725,342.2c0,0 46.25,43.875 46.15,43.8c-0.1,-0.075 7.6,-7.175 7.6,-7.175c0,0 6.625,-7.25 6.75,-7.25c0.125,0 4.75,-5 4.75,-5c0,0 5,-6 4.9,-6.075c-0.1,-0.075 -50.9,-38.425 -51,-38.5c-0.1,-0.075 -19.15,20.2 -19.15,20.2z" id="svg_118"/>
    <text transform="rotate(41.181793212890625 545.4609375000002,353.2578125) " font-size="18" id="svg_159" y="359.25032" x="524.44563">B244</text>
</svg>