<svg width="100%" height="100%" viewBox="0 50 600 300">
    <path id="svg_39" d="m8.49796,149.91399"/>
    <rect class="stairsV" id="svg_44" height="31.74238" width="13.49676" y="162.91087" x="74.98199"/>
    <rect class="roomPlan" id="svg_65" height="27.9907" width="10.49556" y="169.92366" x="134.73367"/>
    <rect class="roomPlan" id="svg_66" height="27.7407" width="10.49556" y="169.92366" x="147.48367"/>
    <rect class="roomPlan" id="svg_72" height="27.9907" width="23.99555" y="169.42366" x="286.23367"/>
    <rect class="roomPlan" id="svg_115" height="28.9907" width="11.49555" y="168.42366" x="439.48369"/>
    <rect class="roomPlan" id="svg_115" height="28.9907" width="11.49555" y="168.42366" x="452.48369"/>
    <rect class="stairsH" id="svg_121" height="12.49071" width="53.74557" y="209.17366" x="262.23368"/>
    <rect class="stairsH" id="svg_122" height="12.49071" width="53.74557" y="208.92366" x="417.98368"/>
    <rect class="stairsV" id="svg_123" height="31.9907" width="20.24555" y="114.92366" x="523.48369"/>
    <rect class="roomPlan" id="svg_127" height="13.49071" width="13.49555" y="207.17366" x="528.73369"/>
    <rect class="roomPlan" id="svg_132" height="70.74069" width="57.74557" y="234.67365" x="241.73368"/>
    <rect class="stairsH" id="svg_134" height="18.00929" width="28.24557" y="286.91437" x="301.48367"/>
    <rect class="roomPlan" id="svg_135" height="70.49069" width="58.99557" y="234.67365" x="331.73368"/>
    <rect class="roomPlan" id="svg_137" height="70.49069" width="32.24557" y="234.67365" x="460.23368"/>
    <rect class="stairsV" id="svg_138" height="32.49071" width="19.24555" y="234.17366" x="524.23369"/>
    <path class="roomPlan" id="svg_144" d="m188.05,235.4c0,0 0.25,34.00021 0.25,34.00021c0,0 -51.25,-33.75383 -51.25,-33.75383c0,0 51,-0.24638 51,-0.24638z"/>
    <line id="svg_145" y2="235.12554" x2="136.40864" y1="195.62554" x1="76.40864"/>
    <path class="roomPlan" id="svg_146" d="m134.5,217.5"/>
    <rect class="roomPlan" id="svg_147" width="16.74295" y="179.02465" x="110.95329"/>
    <rect class="roomPlan" id="svg_149" height="0.37484" width="5.74758" y="180.14917" x="126.57172"/>
    <rect class="roomPlan" id="svg_150" height="0.37484" width="21.86579" y="197.26697" x="110.95329"/>
    <rect class="roomPlan" transform="rotate(90 124.32266998291014,180.2116394042969) " id="svg_151" height="0.37484" width="15.99327" y="180.02422" x="116.32604"/>
    <rect class="roomPlan" id="svg_152" height="0.37484" width="5.74758" y="180.02423" x="278.13292"/>
    <rect class="roomPlan" id="svg_153" height="0.37484" width="21.86577" y="196.76718" x="262.38958"/>
    <rect class="roomPlan" transform="rotate(90 276.1337280273438,179.52445983886722) " id="svg_154" height="0.37484" width="16.61799" y="179.33703" x="267.82479"/>
    <rect class="roomPlan" id="svg_155" height="0.37484" width="5.74758" y="179.14959" x="430.31886"/>
    <rect class="roomPlan" id="svg_156" height="0.37484" width="22.7404" y="196.26739" x="414.70048"/>
    <rect class="roomPlan" transform="rotate(90 428.31967163085943,178.96218872070315) " id="svg_157" height="0.37484" width="15.74336" y="178.77477" x="420.44804"/>
    <rect class="roomPlan" transform="rotate(90 355.35046386718756,154.40998840332034) " id="svg_159" height="0.37484" width="10.37061" y="154.22257" x="350.16519"/>
    <rect class="roomPlan" transform="rotate(90 492.66766357421875,154.65988159179693) " id="svg_160" height="0.37484" width="10.37061" y="154.47246" x="487.48239"/>
    <rect class="roomPlan" transform="rotate(90 523.1548461914064,154.40998840332037) " id="svg_161" height="0.37484" width="10.37061" y="154.22257" x="517.96956"/>
    <rect class="roomPlan" id="svg_162" height="0.37484" width="26.36388" y="144.22678" x="494.72934"/>
    <rect class="roomPlan" transform="rotate(90 543.6462402343751,172.09005737304693) " id="svg_163" height="0.37484" width="47.72988" y="171.90263" x="519.78127"/>
    <rect class="roomPlan" id="svg_164" height="0.37484" width="22.24061" y="195.08037" x="545.2081"/>
    <rect class="roomPlan" id="svg_165" height="0.37484" width="22.24061" y="231.81491" x="545.2081"/>
    <line transform="rotate(-3.51546573638916 107.91690063476638,197.14144897460926) " id="svg_201" y2="197.54767" x2="110.10424" y1="196.73523" x1="105.72957"/>
    <line id="svg_202" y2="195.11036" x2="101.60487" y1="196.92272" x1="105.16711"/>
    <line id="svg_203" y2="192.61054" x2="98.48011" y1="194.92287" x1="101.2299"/>
    <line id="svg_204" y2="189.36079" x2="96.29277" y1="192.23557" x1="98.16763"/>
    <line id="svg_205" y2="185.98604" x2="95.29285" y1="188.86082" x1="96.16778"/>
    <line id="svg_206" y2="182.92377" x2="94.73039" y1="185.48607" x1="95.10536"/>
    <line id="svg_207" y2="179.73651" x2="95.16786" y1="182.54879" x1="94.73039"/>
    <line id="svg_208" y2="176.73673" x2="95.9178" y1="179.23654" x1="95.35535"/>
    <line id="svg_209" y2="173.54947" x2="97.85516" y1="176.23677" x1="96.29278"/>
    <line id="svg_210" y2="171.17465" x2="100.35497" y1="173.23699" x1="98.35512"/>
    <line id="svg_211" y2="168.98731" x2="103.60473" y1="170.79968" x1="100.97992"/>
    <line id="svg_212" y2="167.98739" x2="107.35445" y1="168.73733" x1="104.35467"/>
    <line id="svg_213" y2="167.7999" x2="111.16666" y1="167.7999" x1="108.16688"/>
    <rect class="roomPlan" height="0" id="svg_214" width="16.74295" y="178.48636" x="262.74869"/>
    <line transform="rotate(-3.51546573638916 259.7123107910154,196.60316467285196) " id="svg_217" y2="197.00939" x2="261.89963" y1="196.19695" x1="257.52496"/>
    <line id="svg_218" y2="194.57207" x2="253.40027" y1="196.38444" x1="256.9625"/>
    <line id="svg_219" y2="192.07226" x2="250.2755" y1="194.38459" x1="253.0253"/>
    <line id="svg_220" y2="188.82251" x2="248.08817" y1="191.69729" x1="249.96303"/>
    <line id="svg_221" y2="185.44776" x2="247.08824" y1="188.32254" x1="247.96318"/>
    <line id="svg_222" y2="182.38549" x2="246.52579" y1="184.94779" x1="246.90076"/>
    <line id="svg_223" y2="179.19822" x2="246.96325" y1="182.01051" x1="246.52579"/>
    <line id="svg_224" y2="176.19845" x2="247.7132" y1="178.69826" x1="247.15074"/>
    <line id="svg_225" y2="173.01119" x2="249.65055" y1="175.69849" x1="248.08817"/>
    <line id="svg_226" y2="170.63637" x2="252.15037" y1="172.69871" x1="250.15052"/>
    <line id="svg_227" y2="168.44903" x2="255.40012" y1="170.26139" x1="252.77532"/>
    <line id="svg_228" y2="167.44911" x2="259.14984" y1="168.19905" x1="256.15007"/>
    <line id="svg_229" y2="167.26162" x2="262.96205" y1="167.26162" x1="259.96228"/>
    <rect class="roomPlan" height="0" id="svg_230" width="16.74295" y="178.21682" x="415.84841"/>
    <line transform="rotate(-3.51546573638916 412.8120422363284,196.33363342285162) " id="svg_233" y2="196.73985" x2="414.99936" y1="195.92741" x1="410.62469"/>
    <line id="svg_234" y2="194.30253" x2="406.49999" y1="196.1149" x1="410.06223"/>
    <line id="svg_235" y2="191.80272" x2="403.37523" y1="194.11505" x1="406.12502"/>
    <line id="svg_236" y2="188.55296" x2="401.18789" y1="191.42775" x1="403.06275"/>
    <line id="svg_237" y2="185.17821" x2="400.18797" y1="188.053" x1="401.06291"/>
    <line id="svg_238" y2="182.11594" x2="399.62551" y1="184.67825" x1="400.00049"/>
    <line id="svg_239" y2="178.92868" x2="400.06298" y1="181.74097" x1="399.62551"/>
    <line id="svg_240" y2="175.92891" x2="400.81292" y1="178.42872" x1="400.25047"/>
    <line id="svg_241" y2="172.74165" x2="402.75028" y1="175.42895" x1="401.1879"/>
    <line id="svg_242" y2="170.36682" x2="405.25009" y1="172.42917" x1="403.25024"/>
    <line id="svg_243" y2="168.17949" x2="408.49985" y1="169.99185" x1="405.87504"/>
    <line id="svg_244" y2="167.17956" x2="412.24957" y1="167.92951" x1="409.24979"/>
    <line id="svg_245" y2="166.99208" x2="416.06178" y1="166.99208" x1="413.06201"/>
    <path data-office="C047" id="svg_43" d="m73.48235,161.91111c0,0 0,32.74214 0,32.74214c0,0 -65.98415,-45.48908 -65.98415,-45.68903c0,0.19995 65.48427,0.44989 65.48427,0.44989c0,0 0.49988,12.497 0.49988,12.497z"/>
    <text font-size="16" id="svg_170" y="164.49996" x="29.49999">C047</text>
    <rect data-office="C046" id="svg_45" height="38.7407" width="18.49556" y="109.67366" x="67.98367"/>
    <text transform="rotate(90 77.61718749999999,128.89843750000003) " font-size="16" id="svg_171" y="134.49997" x="58.49999">C046</text>
    <rect data-office="C045" id="svg_46" height="38.7407" width="18.49556" y="109.67366" x="87.97887"/>
    <text transform="rotate(90 97.61718749999999,128.89843750000003) " font-size="16" id="svg_172" y="134.49997" x="78.49998">C045</text>
    <rect data-office="C044" id="svg_47" height="38.7407" width="18.49556" y="109.67366" x="108.22401"/>
    <text transform="rotate(90 117.61718749999999,128.89843750000003) " font-size="16" id="svg_173" y="134.49997" x="98.49998">C044</text>
    <rect data-office="C043" id="svg_48" height="38.7407" width="18.49556" y="109.67366" x="128.46915"/>
    <text transform="rotate(90 137.6171875,128.89843750000003) " font-size="16" id="svg_174" y="134.49997" x="118.49997">C043</text>
    <rect data-office="C042" id="svg_49" height="38.7407" width="18.49556" y="109.67366" x="148.71428"/>
    <text transform="rotate(90 157.6171875,128.89843750000003) " font-size="16" id="svg_175" y="134.49997" x="138.49997">C042</text>
    <rect data-office="C041" id="svg_50" height="38.7407" width="18.49556" y="109.67366" x="168.70948"/>
    <text transform="rotate(90 178.1171875,128.89843750000003) " font-size="16" id="svg_176" y="134.49997" x="158.99997">C041</text>
    <rect data-office="C036" id="svg_51" height="38.7407" width="18.49556" y="109.67366" x="219.94717"/>
    <text transform="rotate(90 229.1171875,128.89843750000003) " font-size="16" id="svg_177" y="134.49997" x="209.99995">C036</text>
    <rect data-office="C035" id="svg_52" height="38.7407" width="18.49556" y="109.67366" x="239.94237"/>
    <text transform="rotate(90 249.1171875,128.89843750000003) " font-size="16" id="svg_178" y="134.49997" x="229.99995">C035</text>
    <rect data-office="C034" id="svg_53" height="38.7407" width="18.49556" y="109.67366" x="259.94237"/>
    <text transform="rotate(90 269.11718750000006,128.89843750000003) " font-size="16" id="svg_179" y="134.49997" x="249.99994">C034</text>
    <rect data-office="C033" id="svg_54" height="38.7407" width="18.49556" y="109.67366" x="280.44237"/>
    <text transform="rotate(90 289.61718750000006,128.89843750000003) " font-size="16" id="svg_180" y="134.49997" x="270.49994">C033</text>
    <rect data-office="C032" id="svg_55" height="38.4907" width="18.49556" y="109.17366" x="300.44237"/>
    <text transform="rotate(90 309.61718750000006,128.39843750000003) " font-size="16" id="svg_181" y="133.99997" x="290.49993">C032</text>
    <rect data-office="C031" id="svg_56" height="38.7407" width="18.49556" y="108.92366" x="320.69237"/>
    <text transform="rotate(90 330.11718750000006,128.39843750000003) " font-size="16" id="svg_182" y="133.99997" x="310.99993">C031</text>
    <rect data-office="C026" id="svg_57" height="38.7407" width="18.49556" y="108.67366" x="371.94237"/>
    <text transform="rotate(90 381.11718750000006,127.89843750000003) " font-size="16" id="svg_183" y="133.49997" x="361.99993">C026</text>
    <rect data-office="C025" id="svg_58" height="38.7407" width="18.49556" y="108.42366" x="391.94237"/>
    <text transform="rotate(90 401.6171875,127.89843750000004) " font-size="16" id="svg_184" y="133.49997" x="382.49993">C025</text>
    <rect data-office="C024" id="svg_59" height="38.7407" width="19.24556" y="108.42366" x="411.94237"/>
    <text transform="rotate(90 422.6171875,127.89843750000004) " font-size="16" id="svg_185" y="133.49997" x="403.49993">C024</text>
    <rect data-office="C023" id="svg_60" height="38.7407" width="18.49556" y="108.42366" x="432.69237"/>
    <text transform="rotate(90 442.1171875,127.89843750000004) " font-size="16" id="svg_186" y="133.49997" x="422.99993">C023</text>
    <rect data-office="C022" id="svg_62" height="38.7407" width="18.49556" y="108.42366" x="453.19237"/>
    <text transform="rotate(90 462.6171875,127.89843750000004) " font-size="16" id="svg_187" y="133.49997" x="443.49993">C022</text>
    <rect data-office="C021" id="svg_63" height="38.7407" width="18.49556" y="108.42366" x="473.44237"/>
    <text transform="rotate(90 483.6171875,127.89843750000004) " font-size="16" id="svg_188" y="133.49997" x="464.49993">C021</text>
    <rect data-office="C020" id="svg_64" height="33.9907" width="18.49556" y="162.42366" x="473.44237"/>
    <text transform="rotate(90 482.7265625,179.50000000000006) " font-size="14" id="svg_189" y="184.49997" x="465.99993">C020</text>
    <path data-office="C027" id="svg_333" d="m371.05544,147.83735c0,0 -13.63795,0 -13.63795,0c0,0 0.3653,49.84291 0.3653,49.84291c0,0 33.60782,0 33.68087,-0.10043c-0.07306,0.10043 -0.43836,-34.67662 -0.3653,-34.77705c-0.07306,0.10043 -20.16469,-0.15067 -20.16469,-0.15067c0,0 0.12177,-14.81477 0.12177,-14.81477z"/>
    <text font-size="14" id="svg_190" y="184.49997" x="356.49993">C027</text>
    <path data-office="C030" id="svg_332" d="m342.16879,147.83735c0,0 13.9988,0 13.9988,0c0,0 -0.37497,49.83881 -0.37497,49.83881c0,0 -34.49705,0 -34.57204,-0.10042c0.07499,0.10042 0.44996,-34.67377 0.37497,-34.77418c0.07499,0.10042 20.69823,-0.15066 20.69823,-0.15066c0,0 -0.12499,-14.81355 -0.12499,-14.81355z"/>
    <text font-size="14" id="svg_191" y="184.49997" x="320.49993">C030</text>
    <path data-office="C037" id="svg_282" d="m219.12009,148.58728c0,0 -13.4377,0 -13.4377,0c0,0 0.35994,49.21455 0.35994,49.21455c0,0 33.11433,0 33.18632,-0.09916c-0.07198,0.09916 -0.43192,-34.23946 -0.35994,-34.33862c-0.07198,0.09916 -19.8686,-0.14877 -19.8686,-0.14877c0,0 0.11998,-14.628 0.11998,-14.628z"/>
    <text font-size="14" id="svg_192" y="184.49997" x="204.49993">C037</text>
    <path data-office="C040" id="svg_281" d="m190.43371,148.58728c0,0 13.9988,0 13.9988,0c0,0 -0.37497,49.21455 -0.37497,49.21455c0,0 -34.49705,0 -34.57204,-0.09916c0.07499,0.09916 0.44996,-34.23946 0.37497,-34.33862c0.07499,0.09916 20.69823,-0.14877 20.69823,-0.14877c0,0 -0.12499,-14.628 -0.12499,-14.628z"/>
    <text font-size="14" id="svg_193" y="184.49997" x="168.99993">C040</text>
    <path data-office="C010" id="svg_142" d="m239.30368,234.9c0,0 0.24632,70.25052 0.24632,70.25052c0,0 -50.00368,-35.12526 -50.05294,-35.27264c0.04926,0.14738 -0.19706,-34.73225 -0.19706,-34.73225c0,0 50.00368,-0.24563 50.00368,-0.24563z"/>
    <text font-size="16" id="svg_195" y="269.49996" x="194.99999">C010</text>
    <rect data-office="C008" id="svg_133" height="50.7407" width="27.74557" y="234.67366" x="301.98367"/>
    <text transform="rotate(90 316.125,263.89843750000006) " font-size="16" id="svg_196" y="269.49996" x="296.99999">C008</text>
    <rect data-office="C005" id="svg_136" height="70.49069" width="65.25442" y="234.67365" x="393.22925"/>
    <text font-size="16" id="svg_197" y="269.49996" x="406.99999">C005</text>
    <path data-office="C003" id="svg_139" d="m543.6,268.45c0,0 -49.25,0.51418 -49.35,0.30851c0.1,0.20567 -0.15,35.94149 -0.15,35.94149c0,0 40.25,-0.51418 40.15,-0.71986c0.1,0.20567 8.35,-17.53369 8.35,-17.53369c0,0 1,-17.99645 1,-17.99645z"/>
    <text font-size="16" id="svg_198" y="284.99996" x="499.49999">C003</text>
</svg>